Assignment 1: Census Data Quality for Policy Decisions – Demi_Yang - MUSA 5080 Portfolio
…
# Create a flag for tracts with high MOE on any demographic variable
# Use logical operators (| for OR) in an ifelse() statement
    high_moe_flag = ifelse(
      white_moe_pct > 15 | black_moe_pct > 15 | hispanic_moe_pct > 15,
      TRUE, FALSE
    )
  )
demographic_moe %>%
  select(County, white_moe_pct, black_moe_pct, hispanic_moe_pct)

# A tibble: 390 × 4
   County         white_moe_pct black_moe_pct hispanic_moe_pct
   <chr>                  <dbl>         <dbl>            <dbl>
 1 Alameda County          19.7          70.2             56.3
 2 Alameda County          14.6          94.7             61.6
 3 Alameda County          11.5          40.8             53.3
 4 Alameda County          22.1          54.3             49.0
 5 Alameda County          16.0          68.5             34.6
 6 Alameda County          20.2          33.8             46.3
 7 Alameda County          18.4          26.6             39.4
 8 Alameda County          20.7          28.8             52.2
 9 Alameda County          25.3          43.9             62.1
10 Alameda County          25.3          49.9             44.7
# ℹ 380 more rows
…
